task3/dump.vcd
$date
	Tue Feb 25 16:58:50 2025
$end

$version
	Synopsys VCS version W-2024.09-SP1_Full64
$end

$timescale
	1ps
$end

$comment Csum: 1 d556d73eb1b8a416 $end


$scope module top $end
$var reg 1 ! clk $end
$var reg 1 " rst_n $end
$var reg 1 # load $end
$var reg 1 $ start $end
$var reg 4 % A [3:0] $end
$var reg 4 & B [3:0] $end
$var reg 4 ' sum [3:0] $end
$var reg 1 ( done $end

$scope module dut $end
$var reg 1 ! clk $end
$var reg 1 " rst_n $end
$var reg 1 # load $end
$var reg 1 $ start $end
$var reg 4 % A [3:0] $end
$var reg 4 & B [3:0] $end
$var reg 4 ' sum [3:0] $end
$var reg 1 ( done $end
$var reg 4 ) A_logic [3:0] $end
$var reg 4 * B_logic [3:0] $end
$var reg 4 + sum_logic [3:0] $end
$var reg 1 , carry $end
$var reg 3 - bit_count [2:0] $end
$var reg 1 . sum_bit $end
$var reg 1 / carry_out $end
$var reg 2 0 state [1:0] $end
$upscope $end


$scope module tb $end
$var reg 1 ! clk $end
$var reg 1 " rst_n $end
$var reg 1 # load $end
$var reg 1 $ start $end
$var reg 4 % A [3:0] $end
$var reg 4 & B [3:0] $end
$var reg 4 ' sum [3:0] $end
$var reg 1 ( done $end
$var reg 32 1 err [31:0] $end

$scope function result $end
$upscope $end


$scope task disp $end
$upscope $end


$scope task rst $end
$upscope $end


$scope task check $end
$var reg 1 2 A $end
$var reg 1 3 B $end
$var reg 1 4 sum $end
$upscope $end

$upscope $end

$upscope $end

$enddefinitions $end

#0
$dumpvars
x,
x/
x2
x3
x4
0!
x(
x#
x"
x$
x.
bxxxx %
bxxxx )
bxxxx &
bxxxx *
bxxx -
bxx 0
bxxxx '
bxxxx +
b00000000000000000000000000000000 1
$end
#5000
1!
0"
b0000 )
b0000 *
b0000 +
b0000 '
0,
b000 -
0(
b00 0
#10000
0!
1"
b0000 %
b0000 &
0$
0#
#15000
1!
#20000
0!
#25000
1!
#30000
0!
b0100 %
b0101 &
1#
#35000
1!
b0100 )
b0101 *
#40000
0!
1$
#45000
1!
b01 0
#50000
0!
#55000
1!
1.
0/
b1000 +
b0010 )
b0010 *
b001 -
#60000
0!
#65000
1!
0.
b0100 +
b0001 )
b0001 *
b010 -
#70000
0!
#75000
1!
1/
b0010 +
b0000 )
b0000 *
1,
b011 -
#80000
0!
#85000
1!
1.
0/
b1001 +
0,
b100 -
b10 0
#90000
0!
#95000
1!
b1001 '
1(
b00 0
02
13
14
#100000
0!
#105000
1!
0"
0(
b0000 +
b0100 )
b0101 *
b000 -
b01 0
b0000 )
b0000 *
b0000 '
b00 0
#110000
0!
1"
b0000 %
b0000 &
0$
0#
#115000
1!
#120000
0!
#125000
1!
#130000
0!
1#
#135000
1!
#140000
0!
1$
#145000
1!
b01 0
#150000
0!
#155000
1!
0.
b001 -
#160000
0!
#165000
1!
b010 -
#170000
0!
#175000
1!
b011 -
#180000
0!
#185000
1!
b100 -
b10 0
#190000
0!
#195000
1!
1(
b00 0
03
04
#200000
0!
#205000
1!
0"
0(
b000 -
b01 0
b00 0
#210000
0!
1"
0$
0#
#215000
1!
#220000
0!
#225000
1!
#230000
0!
b0110 %
b0010 &
1#
#235000
1!
b0110 )
b0010 *
#240000
0!
#245000
1!
#250000
0!
#255000
1!
0"
b0000 )
b0000 *
#260000
0!
1"
b0000 %
b0000 &
0#
#265000
1!
#270000
0!
#275000
1!
#280000
0!
b1100 %
b1011 &
1#
#285000
1!
b1100 )
b1011 *
#290000
0!
1$
#295000
1!
b01 0
#300000
0!
#305000
1!
1.
b1000 +
b0110 )
b0101 *
b001 -
#310000
0!
#315000
1!
b1100 +
b0011 )
b0010 *
b010 -
#320000
0!
#325000
1!
b1110 +
b0001 )
b0001 *
b011 -
#330000
0!
#335000
1!
0.
1/
b0111 +
b0000 )
b0000 *
1,
b100 -
b10 0
#340000
0!
#345000
1!
b0111 '
1(
b00 0
13
14
#350000
0!
#355000
1!
0"
0(
b0000 +
b1100 )
b1011 *
0,
b000 -
b01 0
b0000 )
b0000 *
b0000 '
b00 0
#360000
0!
1"
b0000 %
b0000 &
0$
0#
#365000
1!
#370000
0!
#375000
1!
#380000
0!
b1100 %
b1011 &
1#
#385000
1!
b1100 )
b1011 *
#390000
0!
1$
0"
b0000 )
b0000 *
#395000
1!
#400000
0!
#405000
1!
#410000
0!
1"
b0000 %
b0000 &
0$
0#
