task2/dump.vcd
$date
	Tue Feb 25 12:19:10 2025
$end

$version
	Synopsys VCS version W-2024.09-SP1_Full64
$end

$timescale
	1ns
$end

$comment Csum: 1 a624f5eb0a45d541 $end


$scope module top $end
$var reg 1 ! clk $end
$var reg 1 " rst_n $end
$var reg 1 # en $end
$var reg 1 $ m $end
$var reg 1 % load $end
$var reg 8 & data_in [7:0] $end
$var reg 8 ' count [7:0] $end

$scope module DUT $end
$var wire 1 ! clk $end
$var wire 1 " rst_n $end
$var wire 1 # en $end
$var wire 1 $ m $end
$var wire 1 % load $end
$var wire 8 & data_in [7:0] $end
$var reg 8 ' count [7:0] $end
$upscope $end


$scope module tb $end
$var reg 1 ! clk $end
$var reg 1 " rst_n $end
$var reg 1 # en $end
$var reg 1 $ m $end
$var reg 1 % load $end
$var reg 8 & din [7:0] $end
$var reg 8 ' count [7:0] $end

$scope task disp $end
$upscope $end


$scope task rst $end
$upscope $end

$upscope $end

$upscope $end

$enddefinitions $end

#0
$dumpvars
0!
x#
x%
x$
x"
bxxxxxxxx '
bxxxxxxxx &
$end
#5
1!
0"
b00000000 '
#10
0!
1"
b00000000 &
0$
0#
0%
#15
1!
#20
0!
#25
1!
#30
0!
b01100100 &
1%
#35
1!
b01100100 '
#40
0!
#45
1!
0"
b00000000 '
#50
0!
1"
b00000000 &
0%
#55
1!
#60
0!
#65
1!
#70
0!
1#
#75
1!
b00000001 '
#80
0!
#85
1!
0"
b00000010 '
b00000000 '
#90
0!
1"
0#
#95
1!
#100
0!
#105
1!
#110
0!
b11001000 &
1%
#115
1!
b11001000 '
#120
0!
0%
1#
#125
1!
b11001001 '
#130
0!
#135
1!
0"
b11001010 '
b00000000 '
#140
0!
1"
b00000000 &
0#
#145
1!
#150
0!
#155
1!
#160
0!
b00000101 &
1%
#165
1!
b00000101 '
#170
0!
0%
1$
1#
#175
1!
b00000100 '
#180
0!
#185
1!
0"
b00000011 '
b00000000 '
#190
0!
1"
b00000000 &
0$
0#
#195
1!
#200
0!
#205
1!
#210
0!
b11111111 &
1%
#215
1!
b11111111 '
#220
0!
0%
1#
#225
1!
b00000000 '
#230
0!
#235
1!
0"
b00000001 '
b00000000 '
#240
0!
1"
b00000000 &
0#
#245
1!
#250
0!
#255
1!
#260
0!
1%
#265
1!
#270
0!
0%
1$
1#
#275
1!
b11111111 '
#280
0!
#285
1!
0"
b11111110 '
b00000000 '
#290
0!
1"
0$
0#
#295
1!
#300
0!
#305
1!
#310
0!
b00000101 &
1%
#315
1!
b00000101 '
#320
0!
#325
1!
0"
b00000000 '
#330
0!
#335
1!
#340
0!
1"
b00000000 &
0%
#345
1!
#350
0!
#355
1!
#360
0!
b00000101 &
1%
#365
1!
b00000101 '
#370
0!
#375
1!
#380
0!
0"
b00000000 '
